analysis
…
d <- d %>% slice(-c(1:2))

Check that the data loaded:

d

## # A tibble: 337 x 65
##    StartDate EndDate Status IPAddress Progress `Duration (in s Finished
##    <chr>     <chr>   <chr>  <chr>     <chr>    <chr>            <chr>   
##  1 2018-09- 2018-0 0      152.33.5 100      499              1       
##  2 2018-09- 2018-0 0      152.33.6 100      1569             1       
##  3 2018-09- 2018-0 0      152.33.7 100      667              1       
##  4 2018-09- 2018-0 0      134.139. 100      555              1       
##  5 2018-09- 2018-0 0      152.33.1 100      600              1       
##  6 2018-09- 2018-0 0      49.199.2 100      1006             1       
##  7 2018-09- 2018-0 0      120.151. 100      491              1       
##  8 2018-09- 2018-0 0      1.128.10 100      868              1       
##  9 2018-09- 2018-0 0      121.222. 100      674              1       
## 10 2018-09- 2018-0 0      144.133. 100      616              1       
## # ... with 327 more rows, and 58 more variables: RecordedDate <chr>,
## #   ResponseId <chr>, RecipientLastName <chr>, RecipientFirstName <chr>,
## #   RecipientEmail <chr>, ExternalReference <chr>, LocationLatitude <chr>,
## #   LocationLongitude <chr>, DistributionChannel <chr>,
## #   UserLanguage <chr>, Q2 <chr>, Q3 <chr>, Q3_8_TEXT <chr>, Q4 <chr>,
## #   Q5_1 <chr>, Q5_2 <chr>, Q6 <chr>, Q6_6_TEXT <chr>, Q7 <chr>,
## #   Q7_7_TEXT <chr>, Q8 <chr>, Q8_12_TEXT <chr>, Q9_4 <chr>, Q9_5 <chr>,
## #   Q9_6 <chr>, Q9_7 <chr>, `Q10#1_1` <chr>, `Q10#1_2` <chr>,
## #   `Q10#1_3` <chr>, `Q10#1_4` <chr>, `Q10#1_5` <chr>, Q11_1 <chr>,
…
